'id','team_id','team_name','name'
'1','10649','Team Solomid.','dupreeh'
'2','10649','Team Solomid.','device'
'3','10649','Team Solomid.','Xyp9x'
'4','10649','Team Solomid.','cajunb'
'5','10649','Team Solomid.','karrigan'
'6','7386','fnatic','pronax'
'7','7386','fnatic','JW'
'8','7386','fnatic','flusha'
'9','7386','fnatic','KRiMZ'
'10','7386','fnatic','olofmeister'
'11','7455','Virtus.Pro.CS','TaZ'
'12','7455','Virtus.Pro.CS','byali'
'13','7455','Virtus.Pro.CS','Neo'
'14','7455','Virtus.Pro.CS','pashaBiceps'
'15','7455','Virtus.Pro.CS','Snax'
'16','7397','Natus Vincere','Zeus'
'17','7397','Natus Vincere','Edward-'
'18','7397','Natus Vincere','seized'
'19','7397','Natus Vincere','GuardiaN'
'20','7397','Natus Vincere','flamie'
'21','7384','Ninjas in Pyjamas','Xizt'
'22','7384','Ninjas in Pyjamas','f0rest'
'23','7384','Ninjas in Pyjamas','GeT_RiGhT'
'24','7384','Ninjas in Pyjamas','friberg'
'25','7384','Ninjas in Pyjamas','allu'
'26','10705','Team EnVyUs','Happy-'
'27','10705','Team EnVyUs','NBK'
'28','10705','Team EnVyUs','kioShiMa'
'29','10705','Team EnVyUs','shox'
'30','10705','Team EnVyUs','SmithZz'
'31','8431','Team Dignitas.CS','pimp'
'32','8431','Team Dignitas.CS','Kjaerbye'
'33','8431','Team Dignitas.CS','Nico'
'34','8431','Team Dignitas.CS','aizy'
'35','8431','Team Dignitas.CS','FeTiSh'
'36','8431','Team Dignitas.CS','MSL'
'37','8481','HellRaisers','ANGE1'
'38','8481','HellRaisers','Dosia'
'39','8481','HellRaisers','kucher'
'40','8481','HellRaisers','AdreN'
'41','8481','HellRaisers','MOU'
'42','8436','Titan.CS','Ex6TenZ'
'43','8436','Titan.CS','kennyS'
'44','8436','Titan.CS','apEX'
'45','8436','Titan.CS','Maniac'
'46','8436','Titan.CS','RpK'
'47','7395','mousesports.CS','LEGIJA'
'48','7395','mousesports.CS','chrisJ'
'49','7395','mousesports.CS','gob b'
'50','7395','mousesports.CS','NiKolinho'
'51','7395','mousesports.CS','tabseN'
'52','7395','mousesports.CS','nex'
'53','7395','mousesports.CS','denis'
'54','7395','mousesports.CS','Spiidi'
'55','10804','Gamers2','szpero'
'56','10804','Gamers2','innocent'
'57','10804','Gamers2','mouz'
'58','10804','Gamers2','minise'
'59','10804','Gamers2','rallen'
'60','10804','Gamers2','MICHU'
'61','7413','LGB eSports','RUBINO'
'62','7413','LGB eSports','rain-'
'63','7413','LGB eSports','jkaem'
'64','7413','LGB eSports','Polly'
'65','7413','LGB eSports','prb'
'66','7413','LGB eSports','Mystic-'
'67','10569','Counter Logic Gaming.CS','FNS'
'68','10569','Counter Logic Gaming.CS','reltuC'
'69','10569','Counter Logic Gaming.CS','Hazed-'
'70','10569','Counter Logic Gaming.CS','tarik'
'71','10569','Counter Logic Gaming.CS','Lucky-'
'72','10897','Keyd Stars.','FalleN'
'73','10897','Keyd Stars.','fer'
'74','10897','Keyd Stars.','Steel-'
'75','10897','Keyd Stars.','zqk'
'76','10897','Keyd Stars.','Boltz'
'77','8843','Cloud9.CS','n0thing'
'78','8843','Cloud9.CS','shroud'
'79','8843','Cloud9.CS','sgares'
'80','8843','Cloud9.CS','Skadoodle'
'81','8843','Cloud9.CS','fREAKAZOiD'
'82','10561','Team Liquid.CS','daps'
'83','10561','Team Liquid.CS','adreN-'
'84','10561','Team Liquid.CS','FugLy'
'85','10561','Team Liquid.CS','nitr0'
'86','10561','Team Liquid.CS','EliGE-'
'87','10561','Team Liquid.CS','flowsicK'
'88','8664','Team Property.CS','twist'
'89','8664','Team Property.CS','berg'
'90','8664','Team Property.CS','Zende'
'91','8664','Team Property.CS','schneider-'
'92','8664','Team Property.CS','pauf'
'93','8564','Flipsid3 Tactics','B1ad3'
'94','8564','Flipsid3 Tactics','bondik'
'95','8564','Flipsid3 Tactics','WorldEdit'
'96','8564','Flipsid3 Tactics','markeloff'
'97','8564','Flipsid3 Tactics','s1mple'
'98','8602','VOX EMINOR','Havoc'
'99','8602','VOX EMINOR','AZR'
'100','8602','VOX EMINOR','SPUNJ'
'101','8602','VOX EMINOR','jks-'
'102','8602','VOX EMINOR','Dizzy'
'103','8602','VOX EMINOR','yam'
'104','7396','CPH Wolves','MSL'
'105','7396','CPH Wolves','smF'
'106','7396','CPH Wolves','HUNDEN'
'107','7396','CPH Wolves','Acilion'
'108','7396','CPH Wolves','Friis'
'109','7396','CPH Wolves','SandeN'
'110','7396','CPH Wolves','Snappi'
'111','10849','The Chiefs','Lightstep'
'112','10849','The Chiefs','Zewsy'
'113','10849','The Chiefs','Ofnu'
'114','10849','The Chiefs','Nova.-'
'115','10849','The Chiefs','Apoc'
'116','11485','Nihilum Gaming','valens'
'117','11485','Nihilum Gaming','autimatic'
'118','11485','Nihilum Gaming','Professor_Chaos'
'119','11485','Nihilum Gaming','LilgaySanx'
'120','11485','Nihilum Gaming','semphis'
'121','11485','Nihilum Gaming','Hiko'
'122','10845','Team Immunity.CS','SnypeR'
'123','10845','Team Immunity.CS','Rickeh'
'124','10845','Team Immunity.CS','james-'
'125','10845','Team Immunity.CS','emagine'
'126','10845','Team Immunity.CS','USTILO'
'127','9261','Gplay','spyleadeR'
'128','9261','Gplay','viktor'
'129','9261','Gplay','bubble'
'130','9261','Gplay','Dream3r'
'131','9261','Gplay','nkl'
'132','9011','eLevate','Xp3'
'133','9011','eLevate','Storm-'
'134','9011','eLevate','Rush'
'135','9011','eLevate','roca'
'136','9011','eLevate','desi'
'137','8816','PENTA Sports','kRYSTAL'
'138','8816','PENTA Sports','denis'
'139','8816','PENTA Sports','Spiidi'
'140','8816','PENTA Sports','nex'
'141','8816','PENTA Sports','Troubley'
'142','8816','PENTA Sports','enkay J'
'143','8816','PENTA Sports','stavros'
'144','8816','PENTA Sports','strux1'
'145','8816','PENTA Sports','tabseN'
'146','9324','3DMAX Female','Ceriiizz'
'147','9324','3DMAX Female','Cla'
'148','9324','3DMAX Female','aME'
'149','9324','3DMAX Female','NSTY'
'150','9324','3DMAX Female','aLx'
'151','7405','k1ck eSports Club','zlynx'
'152','7405','k1ck eSports Club','zpr-'
'153','7405','k1ck eSports Club','defaulTt'
'154','7405','k1ck eSports Club','JUST]15*'
'155','7405','k1ck eSports Club','ZELIN'
'156','11916','Team Kinguin','Maikelele'
'157','11916','Team Kinguin','SKYTTEN'
'158','11916','Team Kinguin','rain-'
'159','11916','Team Kinguin','ScreaM'
'160','11916','Team Kinguin','fox'
'161','10962','Team Acer.','kHRYSTAL'
'162','10962','Team Acer.','wenton'
'163','10962','Team Acer.','Spitfire-'
'164','10962','Team Acer.','THREAT-'
'165','10962','Team Acer.','slap'
'166','11500','Skyred','cLb'
'167','11500','Skyred','TuKon'
'168','11500','Skyred','Zac'
'169','11500','Skyred','d@rklord'
'170','11500','Skyred','JohnnyP'
'171','7428','ESC Gaming','tecek'
'172','7428','ESC Gaming','repo'
'173','7428','ESC Gaming','NEEX'
'174','7428','ESC Gaming','mynio'
'175','7428','ESC Gaming','rallen'
'176','7407','Reason Gaming CS','MODDII'
'177','7407','Reason Gaming CS','haste'
'178','7407','Reason Gaming CS','JUGIzan'
'179','7407','Reason Gaming CS','maeVe'
'180','7407','Reason Gaming CS','SandeN'
'181','9161','Bad Monkey Gaming Female','juliano'
'182','9161','Bad Monkey Gaming Female','zAAz'
'183','9161','Bad Monkey Gaming Female','lillsan'
'184','9161','Bad Monkey Gaming Female','iRene'
'185','9161','Bad Monkey Gaming Female','vilga'
'186','9161','Bad Monkey Gaming Female','Sonia'
'187','8981','Team Orbit','mikeS'
'188','8981','Team Orbit','kajsk1ng'
'189','8981','Team Orbit','CRUC1AL'
'190','8981','Team Orbit','Monu'
'191','8981','Team Orbit','STRYKER'
'192','9642','Space Soldiers','XANTARESS'
'193','9642','Space Soldiers','ONLY'
'194','9642','Space Soldiers','TuGuX'
'195','9642','Space Soldiers','e1'
'196','9642','Space Soldiers','marqnue'
'197','7441','Lemondogs CS','atter'
'198','7441','Lemondogs CS','darti'
'199','7441','Lemondogs CS','Griefmaster'
'200','7441','Lemondogs CS','ozoo'
'201','7441','Lemondogs CS','tease'
'202','7420','x6tence','MusambaN1'
'203','7420','x6tence','Kairi'
'204','7420','x6tence','loWel'
'205','7420','x6tence','FlipiN'
'206','7420','x6tence','meisoN'
'207','7420','x6tence','sukitRon'
'208','8742','tRICKED','FoDa'
'209','8742','tRICKED','gabesson'
'210','8742','tRICKED','Flash-'
'211','8742','tRICKED','rmL'
'212','8742','tRICKED','NEY'
'213','10581','Pay Attention','Julie'
'214','10581','Pay Attention','layla'
'215','10581','Pay Attention','Jinjin'
'216','10581','Pay Attention','iXora'
'217','10581','Pay Attention','HellRose'
'218','8814','Games4u.se','xelos'
'219','8814','Games4u.se','huggan'
'220','8814','Games4u.se','khobra'
'221','8814','Games4u.se','lidde'
'222','8814','Games4u.se','maektig'
'223','8612','TyLoo.CS','fancy1'
'224','8612','TyLoo.CS','Mo'
'225','8612','TyLoo.CS','qz'
'226','8612','TyLoo.CS','somebody'
'227','8612','TyLoo.CS','DD-'
'228','8494','Epsilon','donQ'
'229','8494','Epsilon','arki'
'230','8494','Epsilon','ALEX--'
'231','8494','Epsilon','SOKER'
'232','8494','Epsilon','mixwell'
'233','8799','ENCORE','disturbed'
'234','8799','ENCORE','xartE'
'235','8799','ENCORE','stonde'
'236','8799','ENCORE','KHRN'
'237','8799','ENCORE','naSu'
'238','11395','Team LDLC Blue','BouLy'
'239','11395','Team LDLC Blue','madc-'
'240','11395','Team LDLC Blue','PetitSkel'
'241','11395','Team LDLC Blue','HEdm'
'242','11395','Team LDLC Blue','XpG'
'243','10724','puta','coloN'
'244','10724','puta','crZy'
'245','10724','puta','Dash'
'246','10724','puta','DetlevSNitzEL'
'247','10724','puta','funtz'
'248','10527','iNation','emi'
'249','10527','iNation','YNk'
'250','10527','iNation','kassad'
'251','10527','iNation','DiMKE'
'252','10527','iNation','1NTEL'
'253','11229','Off Constantly','brake'
'254','11229','Off Constantly','C0NVICT'
'255','11229','Off Constantly','clipsy'
'256','11229','Off Constantly','GRAMMPZZZ'
'257','10789','Incursion','ry9n'
'258','10789','Incursion','pauLy1'
'259','10789','Incursion','markalodon'
'260','10789','Incursion','witmer'
'261','10789','Incursion','mCe'
'262','10142','Imaginary Gaming Female','Amandiine'
'263','10142','Imaginary Gaming Female','PrincesS-'
'264','10142','Imaginary Gaming Female','Julie-'
'265','10142','Imaginary Gaming Female','Rima'
'266','10142','Imaginary Gaming Female','Lulla'
'267','12092','undefined.','Acilion'
'268','12092','undefined.','Friis'
'269','12092','undefined.','gla1ve'
'270','12092','undefined.','HUNDEN'
'271','12092','undefined.','TENZKI'
'272','12092','undefined.','maeVe'
'273','11632','teamswagyolo','mouseTT'
'274','11632','teamswagyolo','spaze'
'275','11632','teamswagyolo','DavCost'
'276','11632','teamswagyolo','brain-'
'277','11632','teamswagyolo','kibaken-'
'278','12042','Noble Honor','planks'
'279','12042','Noble Honor','roa'
'280','12042','Noble Honor','Frisco'
'281','12042','Noble Honor','rob-wiz'
'282','12042','Noble Honor','4sh0t'
'283','11531','Noxious Gaming.','mae'
'284','11531','Noxious Gaming.','moojuice'
'285','11531','Noxious Gaming.','smirfy'
'286','11531','Noxious Gaming.','sibe'
'287','11531','Noxious Gaming.','shredzy'
'288','11110','CMStorm Female','QueeN'
'289','11110','CMStorm Female','Faith-'
'290','11110','CMStorm Female','studix3'
'291','11110','CMStorm Female','Shifty'
'292','11110','CMStorm Female','kllyVe'
'293','11193','Team Jose Ole','Lopezomg'
'294','11193','Team Jose Ole','banks'
'295','11193','Team Jose Ole','JMZ'
'296','11193','Team Jose Ole','Nicolas-'
'297','11193','Team Jose Ole','tork'
'298','10199','Piter','spikerzor'
'299','10199','Piter','jMqA'
'300','10199','Piter','waterfallZ'
'301','10199','Piter','facecrack'
'302','10199','Piter','waylanderrrr'
'303','11503','MVP.karnal','aimaNNN'
'304','11503','MVP.karnal','acap'
'305','11503','MVP.karnal','-ims'
'306','11503','MVP.karnal','kaze.CS'
'307','11503','MVP.karnal','xevR'
'308','8663','ZZCY','ed101'
'309','8663','ZZCY','Vgo'
'310','8663','ZZCY','813.'
'311','8663','ZZCY','diyy'
'312','8663','ZZCY','d1o'
'313','8701','nEophyte eSports','uno'
'314','8701','nEophyte eSports','zeRo-'
'315','8701','nEophyte eSports','Barb1'
'316','8701','nEophyte eSports','oskar'
'317','8701','nEophyte eSports','queztone'
'318','10664','EYESports','liTTle'
'319','10664','EYESports','denello'
'320','10664','EYESports','torNadQ'
'321','10664','EYESports','tixoNsville'
'322','10664','EYESports','spaze'
'323','9397','WOOSAH','checkk'
'324','9397','WOOSAH','Sli'
'325','9397','WOOSAH','D4n'
'326','9397','WOOSAH','RK'
'327','9397','WOOSAH','hwinn'
'328','9636','WiLD.CM','ZEN-'
'329','9636','WiLD.CM','ASSA'
'330','9636','WiLD.CM','Boco'
'331','9636','WiLD.CM','bzt'
'332','9636','WiLD.CM','RAISY'
'333','11208','CAZ eSports','Jakem'
'334','11208','CAZ eSports','sixfive'
'335','11208','CAZ eSports','mole'
'336','11208','CAZ eSports','SPUDZ'
'337','11208','CAZ eSports','REAZN'
'338','10943','Backfire','Toy-'
'339','10943','Backfire','doubLol'
'340','11232','BOXR','MagoZz'
'341','11232','BOXR','launders'
'342','11232','BOXR','zuco'
'343','11232','BOXR','Stewie2k'
'344','11232','BOXR','stayfrosty'
'345','11379','Tempo Storm.','ryx'
'346','11379','Tempo Storm.','sLip'
'347','11379','Tempo Storm.','Stanislaw'
'348','11379','Tempo Storm.','glorinsz'
'349','11379','Tempo Storm.','hades'
'350','11379','Tempo Storm.','ShahZaM'
'351','11231','Precision Gaming','aclies'
'352','11231','Precision Gaming','gmL'
'353','11231','Precision Gaming','SlyZ'
'354','11231','Precision Gaming','ChrisG-'
'355','11231','Precision Gaming','EagleIV'
'356','11732','nerdRage','jOELZ'
'357','11732','nerdRage','villiG'
'358','11732','nerdRage','alexwho'
'359','11732','nerdRage','shed'
'360','11732','nerdRage','Blasdfa'
'361','11210','Dethrone','HazardouZ'
'362','11210','Dethrone','Nerdy'
'363','11210','Dethrone','TLBT420'
'364','11210','Dethrone','cutlazz'
'365','11210','Dethrone','boshy'
'366','8610','Nface Gaming','Reaction'
'367','8610','Nface Gaming','MoriartyS'
'368','8610','Nface Gaming','zhonG'
'369','8610','Nface Gaming','aumaN'
'370','8610','Nface Gaming','advent'
'371','11696','ROCK','Boco'
'372','11696','ROCK','bodito'
'373','11696','ROCK','RAISY'
'374','11696','ROCK','ZEN-'
'375','11696','ROCK','Flash-'
'376','9400','HEAT','Phow0w'
'377','9400','HEAT','Fri$co'
'378','9400','HEAT','pr1smm'
'379','9400','HEAT','tomcho34'
'380','9400','HEAT','Odjur'
'381','11463','vVv Gaming.','Funshine'
'382','11463','vVv Gaming.','jayy'
'383','11463','vVv Gaming.','Fadeee'
'384','11463','vVv Gaming.','Dynam0'
'385','11463','vVv Gaming.','no_one'
'386','12021','New Era.','BALBLNA'
'387','12021','New Era.','TheMark'
'388','12021','New Era.','BAS'
'389','12021','New Era.','FANAT ROCKA'
'390','12021','New Era.','sorriso'
'391','12022','7sway','Deca'
'392','12022','7sway','kinqie'
'393','12022','7sway','lma-'
'394','12022','7sway','synd'
'395','12022','7sway','leo-'
'396','11534','Team VB Mate','marto'
'397','11534','Team VB Mate','xertz'
'398','11534','Team VB Mate','Ar3syK'
'399','11534','Team VB Mate','dimojnr'
'400','11534','Team VB Mate','shadske'
'401','11228','Immersive eSports','the.judge'
'402','11228','Immersive eSports','Kane^GTR'
'403','11228','Immersive eSports','etep'
'404','11228','Immersive eSports','aLx-'
'405','11228','Immersive eSports','shaQ'
'406','10671','LAN DODGERS','archieee'
'407','10671','LAN DODGERS','smike'
'408','10671','LAN DODGERS','f1l1n'
'409','10671','LAN DODGERS','crush'
'410','10671','LAN DODGERS','famous_izmo'
'411','8785','Rasta.Xd','Jstar'
'412','8785','Rasta.Xd','keita'
'413','8785','Rasta.Xd','r0m'
'414','8785','Rasta.Xd','Surreal'
'415','8785','Rasta.Xd','chz'
'416','8713','Team Menace.','suNny-'
'417','8713','Team Menace.','REFLEX'
'418','8713','Team Menace.','aslak'
'419','8713','Team Menace.','zehN'
'420','9618','LunatiK','inVert'
'421','9618','LunatiK','Scoutz^G'
'422','9618','LunatiK','draek-'
'423','9618','LunatiK','Tvu'
'424','9618','LunatiK','HandleD_db'
'425','9146','myXMG Female','mattye.'
'426','9146','myXMG Female','aurora-'
'427','9146','myXMG Female','Hedje'
'428','9146','myXMG Female','Jennyzz'
'429','9146','myXMG Female','L.K.S'
'430','11501','Insidious Gaming.','Benkai'
'431','11501','Insidious Gaming.','doMMM'
'432','11501','Insidious Gaming.','splashske'
'433','11501','Insidious Gaming.','dejavux'
'434','11501','Insidious Gaming.','zhsl'
'435','11502','Puzzle','Karsa-'
'436','11502','Puzzle','attacker'
'437','11502','Puzzle','LOVEYY'
'438','11502','Puzzle','INNOPY'
'439','11502','Puzzle','twentyone'
'440','11357','Vega Squadron.','jR'
'441','11357','Vega Squadron.','Keshandr'
'442','11357','Vega Squadron.','hutji'
'443','11357','Vega Squadron.','MiR'
'444','11357','Vega Squadron.','norison'
'445','9323','Team ALTERNATE Female','beyoNd'
'446','9323','Team ALTERNATE Female','kathi'
'447','9323','Team ALTERNATE Female','angel.th'
'448','9323','Team ALTERNATE Female','CeleN'
'449','9323','Team ALTERNATE Female','Knopk@'
'450','10197','Check6','MOU'
'451','10197','Check6','cau'
'452','10197','Check6','Keen.kz'
'453','10197','Check6','gdevil'
'454','10197','Check6','dreaM.kz'
'455','11453','The Last Resort','steel'
'456','11453','The Last Resort','b3n'
'457','11453','The Last Resort','vertiGo'
'458','11453','The Last Resort','paynt'
'459','11453','The Last Resort','ALIG'
'460','11517','Mostly Harmless','nitro-'
'461','11517','Mostly Harmless','eQuals-'
'462','11517','Mostly Harmless','cubeeed'
'463','11517','Mostly Harmless','Vulcanium'
'464','11517','Mostly Harmless','DUM0RE'
'465','10201','Zbrilo','BeelzeBoss'
'466','10201','Zbrilo','sLR'
'467','10201','Zbrilo','nsww'
'468','10201','Zbrilo','silva'
'469','10201','Zbrilo','rizzz'
'470','8630','Temp.no','DaY'
'471','8630','Temp.no','moen'
'472','8630','Temp.no','KORN'
'473','8630','Temp.no','aNdz'
'474','8630','Temp.no','paint'
'475','11904','GreyFace','MODDII'
'476','11904','GreyFace','BARBARR'
'477','11904','GreyFace','maxie'
'478','11904','GreyFace','Jumpy'
'479','11904','GreyFace','KAB0M'
'480','9344','Moscow 5','AERO'
'481','9344','Moscow 5','Foking'
'482','9344','Moscow 5','Fox-'
'483','9344','Moscow 5','FLMZ'
'484','9344','Moscow 5','nrkkk'
'485','10200','Quit','1uke'
'486','10200','Quit','kaipi'
'487','10200','Quit','Flande'
'488','10200','Quit','puzo'
'489','10200','Quit','liTTle'
'490','8565','Publiclir.se','Quix'
'491','8565','Publiclir.se','xperience'
'492','8565','Publiclir.se','zitte'
'493','8565','Publiclir.se','Awwe'
'494','8565','Publiclir.se','downie'
'495','10873','Divine','Dima'
'496','10873','Divine','Luke'
'497','10873','Divine','MEDUSA'
'498','10873','Divine','VVALTER'
'499','10873','Divine','mAERS'
'500','11418','malefiQ','BDSM'
'501','11418','malefiQ','detinate'
'502','11418','malefiQ','HUNDZI'
'503','11418','malefiQ','kutter'
'504','11418','malefiQ','pallib0ndi'
'505','11532','Team Steelseries','obez'
'506','11532','Team Steelseries','nick-'
'507','11532','Team Steelseries','rhyz'
'508','11532','Team Steelseries','mizu'
'509','11532','Team Steelseries','spikez'
'510','10919','XPC','starkiller'
'511','10919','XPC','RealCron'
'512','10919','XPC','remkez'
'513','10919','XPC','r1d3r-'
'514','10919','XPC','SEMINTE'
'515','9245','KILLERFISH eSport e.V.','am0'
'516','9245','KILLERFISH eSport e.V.','TONI'
'517','9245','KILLERFISH eSport e.V.','oskarish'
'518','9245','KILLERFISH eSport e.V.','r0bs3n'
'519','9245','KILLERFISH eSport e.V.','tahsiN'
'520','11533','Sneaky Assasins','r0b-'
'521','11533','Sneaky Assasins','payb8ck'
'522','11533','Sneaky Assasins','filo'
'523','11533','Sneaky Assasins','rompastompa'
'524','11533','Sneaky Assasins','dues m'
'525','10878','affNity','Focs'
'526','10878','affNity','jasonrr'
'527','10878','affNity','Davey'
'528','10878','affNity','arya-'
'529','10878','affNity','SIDOF'
'530','10920','Luminosity Gaming','anger-'
'531','10920','Luminosity Gaming','SuPerLeX'
'532','10920','Luminosity Gaming','fl0m'
'533','10920','Luminosity Gaming','pyth'
'534','10920','Luminosity Gaming','ptr'
'535','10920','Luminosity Gaming','NAF-FLY'
'536','9325','Team Karma','lynnski'
'537','9325','Team Karma','rain.cs'
'538','9325','Team Karma','emuhleet'
'539','9325','Team Karma','bENITA'
'540','9325','Team Karma','ShazZ'
'541','11972','Method','SileNt3m'
'542','11972','Method','just9n'
'543','11972','Method','streb9r'
'544','11972','Method','Eley-fs-'
'545','11972','Method','MAiNLiNE'
'546','8587','INShock','Furlan'
'547','8587','INShock','Loord'
'548','8587','INShock','GruBy'
'549','8587','INShock','peet'
'550','8587','INShock','Hyper'
'551','11422','SharkGaming','hiffer'
'552','11422','SharkGaming','INX'
'553','11422','SharkGaming','Maziaz'
'554','11422','SharkGaming','neon'
'555','7437','CPLAY','Berry'
'556','7437','CPLAY','gla1ve'
'557','7437','CPLAY','muffeb'
'558','7437','CPLAY','holzt'
'559','7437','CPLAY','xanzir'
'560','7437','CPLAY','percy'
'561','8828','Tempo Gaming','WhiteHound'
'562','8828','Tempo Gaming','koosta'
'563','8828','Tempo Gaming','Anomaly^'
'564','8828','Tempo Gaming','Ryu-'
'565','8828','Tempo Gaming','Vulcanium'
'566','8608','Team nxl','frgd'
'567','8608','Team nxl','soifong'
'568','8608','Team nxl','roseau'
'569','8608','Team nxl','Sys'
'570','8608','Team nxl','frostmisty'
'571','10848','Streamline','deStiny-'
'572','10848','Streamline','ferg'
'573','10848','Streamline','MoeycQ'
'574','10848','Streamline','teddyt'
'575','8666','neXtPlease!','Kinder'
'576','8666','neXtPlease!','mdaaa'
'577','8666','neXtPlease!','DaNy'
'578','8666','neXtPlease!','WHitE-'
'579','8666','neXtPlease!','BTN'
'580','8829','Make War Not Love','flashstep-'
'581','8829','Make War Not Love','joshbM'
'582','8829','Make War Not Love','ninja-'
'583','8829','Make War Not Love','DaddyFknLopes'
'584','8829','Make War Not Love','zecK'
'585','11419','schlaegeros','kalsabro'
'586','11419','schlaegeros','haggis'
'587','11419','schlaegeros','REASTEN'
'588','11419','schlaegeros','Vyp'
'589','11419','schlaegeros','evo'
'590','10929','MONARCHS','idddQ'
'591','10929','MONARCHS','Patrick'
'592','10929','MONARCHS','opTi'
'593','10929','MONARCHS','SolEk'
'594','10929','MONARCHS','kev1n.de'
'595','8806','FM eSports','nEILZiNHo'
'596','8806','FM eSports','socN'
'597','8806','FM eSports','weber'
'598','8806','FM eSports','mikeS'
'599','8806','FM eSports','Whindanski'
'600','8717','jQntefabrikkeN','daboys'
'601','8717','jQntefabrikkeN','detura'
'602','8717','jQntefabrikkeN','LATINOBOMBEN'
'603','8717','jQntefabrikkeN','quiNz'
'604','8717','jQntefabrikkeN','Strikker'
'605','11957','Awsomniac','thyx'
'606','11957','Awsomniac','Remakz'
'607','11957','Awsomniac','knukk'
'608','11957','Awsomniac','Kan4tOr'
'609','11957','Awsomniac','arK94'
'610','11421','Badger','akez'
'611','11421','Badger','womb4t'
'612','11421','Badger','centralize'
'613','11421','Badger','niel'
'614','11421','Badger','vailenthyper'
'615','9322','Ubinited','potter'
'616','9322','Ubinited','missharvey'
'617','9322','Ubinited','di^'
'618','9322','Ubinited','GooseBreeder'
'619','9322','Ubinited','CAth'
'620','11420','FUGL?','embO'
'621','11420','FUGL?','HECTOz'
'622','11420','FUGL?','MIKKELNAT0R'
'623','11420','FUGL?','Viggo-'
'624','11420','FUGL?','Vitexx'
'625','8684','Team Infused.CS','redsnake'
'626','8684','Team Infused.CS','hudzG'
'627','8684','Team Infused.CS','Zed'
'628','8684','Team Infused.CS','Aaron.uk'
'629','8684','Team Infused.CS','KritikaL'
'630','8617','mouseSpaz','IMP[t]'
'631','8617','mouseSpaz','dmize ozh'
'632','8617','mouseSpaz','FGB'
'633','8617','mouseSpaz','zecK'
'634','8617','mouseSpaz','fruitcup'
'635','10901','Lions','StiGwOw'
'636','10901','Lions','spity'
'637','10901','Lions','base'
'638','10901','Lions','skippii'
'639','10901','Lions','enix'
'640','8584','USSR','latro'
'641','8584','USSR','insom'
'642','8584','USSR','Egor K.'
'643','8584','USSR','En4ZenT'
'644','8584','USSR','DSTR'
'645','8584','USSR','PURPLE TURTLE'
'646','8584','USSR','PLAZ'
'647','8582','ACES','toff'
'648','8582','ACES','spyn'
'649','8582','ACES','PLAZ'
'650','8582','ACES','hooch'
'651','8582','ACES','ub1que'
'652','8582','ACES','Electronic'
'653','10875','Wrecking Gaming','Keshandr'
'654','10875','Wrecking Gaming','jR'
'655','10875','Wrecking Gaming','hutji'
'656','10875','Wrecking Gaming','MiR'
'657','10875','Wrecking Gaming','norison'
'658','11631','WEPLAY','chin-'
'659','11631','WEPLAY','ivs4r'
'660','11631','WEPLAY','wmj'
'661','11631','WEPLAY','lexer'
'662','11631','WEPLAY','treaNt'
'663','10881','ALSEN Female','Ariina'
'664','10881','ALSEN Female','bullet girl'
'665','10881','ALSEN Female','lui-'
'666','10881','ALSEN Female','pasia'
'667','10881','ALSEN Female','vorti-'
'668','11458','beGenius','SplqT'
'669','11458','beGenius','Malek'
'670','11458','beGenius','VKLL'
'671','11458','beGenius','LoWkii'
'672','11458','beGenius','Dingo'
'673','10544','GGWP','aka'
'674','10544','GGWP','roman'
'675','10544','GGWP','dERZKIY'
'676','10544','GGWP','spaz'
'677','10544','GGWP','zoner'
'678','10544','GGWP','lamp'
'679','10544','GGWP','missE'
'680','11947','AlienTech Black','mUtt'
'681','11947','AlienTech Black','rmn'
'682','11947','AlienTech Black','AIm'
'683','11947','AlienTech Black','portelito'
'684','11947','AlienTech Black','KillDream'
'685','11947','AlienTech Black','riis3d'
'686','8577','myXMG','neviZ'
'687','8577','myXMG','get'
'688','8577','myXMG','gimpen'
'689','8577','myXMG','nky'
'690','8577','myXMG','neyzin'
'691','8860','Key-Preisvergleich.de','ScrunK'
'692','8860','Key-Preisvergleich.de','oddo'
'693','8860','Key-Preisvergleich.de','Inzta.'
'694','8860','Key-Preisvergleich.de','J0hnny'
'695','8860','Key-Preisvergleich.de','threeman'
'696','11209','Team LDLC White','matHEND'
'697','11209','Team LDLC White','Bodyy'
'698','11209','Team LDLC White','Fuks'
'699','11209','Team LDLC White','to1nou'
'700','11209','Team LDLC White','DEVIL-'
'701','8595','OnlineBOTS','nuga'
'702','8595','OnlineBOTS','fejtz'
'703','8595','OnlineBOTS','HS1337'
'704','8595','OnlineBOTS','sperr'
'705','8595','OnlineBOTS','bUlGhUr'
'706','8858','Playing-Ducks','Kirby'
'707','8858','Playing-Ducks','kzy'
'708','8858','Playing-Ducks','crisby'
'709','8858','Playing-Ducks','keev'
'710','8858','Playing-Ducks','tiziaN'
'711','7425','Area 51 Gaming','arya-'
'712','7425','Area 51 Gaming','summit1g'
'713','7425','Area 51 Gaming','cabibi64'
'714','7425','Area 51 Gaming','Char'
'715','7425','Area 51 Gaming','juv3nile'
'716','7425','Area 51 Gaming','TM'
'717','10847','Avant Garde.CS','CHRiSOAOW'
'718','10847','Avant Garde.CS','devK'
'719','10847','Avant Garde.CS','HazfkN'
'720','10847','Avant Garde.CS','PeetyG'
'721','10847','Avant Garde.CS','5hp'
'722','11847','Ace Gaming.','PEX.cs'
'723','11847','Ace Gaming.','TaM05'
'724','11847','Ace Gaming.','TroyBOY'
'725','11847','Ace Gaming.','decipLe'
'726','11847','Ace Gaming.','Grt'
'727','11847','Ace Gaming.','rabbit'
'728','11847','Ace Gaming.','mOE'
'729','11847','Ace Gaming.','APE'
'730','11847','Ace Gaming.','NAF-FLY'
'731','11847','Ace Gaming.','stan^'
'732','11847','Ace Gaming.','vEz'
'733','11847','Ace Gaming.','montE'
'734','11847','Ace Gaming.','maxAki'
'735','8826','SapphireKelownaDotCom','ocean'
'736','8826','SapphireKelownaDotCom','els'
'737','8826','SapphireKelownaDotCom','Slemmy'
'738','8826','SapphireKelownaDotCom','Stewie2k'
'739','8826','SapphireKelownaDotCom','Char'
'740','8826','SapphireKelownaDotCom','rooRoooo'
'741','12046','Tuga Thunders','SoPlaysYT'
'742','12046','Tuga Thunders','Knackii'
'743','12051','Eternal Vendetta','ShebaV'
'744','12051','Eternal Vendetta','mckiller20001'
'745','12059','Dragons™bro','PRZEMX0'
'746','12060','Team Contra','Gingerbread1611'
'747','12060','Team Contra','DTFds'
'748','12068','RedLine','temtemtemking'
'749','12075','REDFOX','rsk'
'750','12075','REDFOX','cojabrateuuu'
'751','12075','REDFOX','Jovica'
'752','12078','PitBu??','Cenka'
'753','12081','HeXuS','SwirlyTwirly'
'754','12081','HeXuS','Holzeld'
'755','12081','HeXuS','DaNightsTemplar'
'756','12084','Violet Spartans','Varius'
'757','12084','Violet Spartans','CrixusCSGO'
'758','12091','OculusAUS','FriedNerd'
'759','12094','kill o bots','gunrhys'
'760','12108','Varrow.Pro','Yerris'
'761','12108','Varrow.Pro','NexMash'
'762','12115','MiSTaK3Z','TheAwesomeOle'
'763','12115','MiSTaK3Z','Deathblo'
'764','12118','Ladventures','yewtoo2'
'765','12127','VladimirPutin','alexey9719'
'766','12133','Sicut Nox Silent.CS','SYN13'
'767','12133','Sicut Nox Silent.CS','Will.I.Am'
'768','12133','Sicut Nox Silent.CS','JunnA'
'769','12133','Sicut Nox Silent.CS','AnubiiS96'
'770','12133','Sicut Nox Silent.CS','Gigante6700'
'771','12136','NovaViva','XelaP'
'772','12141','NyanKillers','homelyNES'
'773','12146','Cyber bears','Dimaman'
'774','12154','CamperELITE','(KaVeH)'
'775','12157','XENEX','Sheekey'
'776','12157','XENEX','Puls3'
'777','12157','XENEX','JT'
'778','12157','XENEX','RattlesnK'
'779','12157','XENEX','mole'
'780','12158','W3Play','isirc2011'
'781','12159','EZskins','Boaster'
'782','12159','EZskins','AndrewIsGod'
'783','12159','EZskins','chron1c'
'784','12159','EZskins','mvicK'
'785','12159','EZskins','resu'
'786','12010','FLÆKKEHOLDET','Snappi'
'787','12010','FLÆKKEHOLDET','LOMME'
'788','12010','FLÆKKEHOLDET','EXR'
'789','12010','FLÆKKEHOLDET','smF'
'790','12010','FLÆKKEHOLDET','glace'
'791','12011','Team Sanves','NomadPL'
'792','12015','Team OneHP','theSandyBridge'
'793','12018','Team Ascend','Cursed1873'
'794','12023','Team Angry Beavers','Neik.'
'795','12029','Kill of Term','ryanjames1411'
'796','12029','Kill of Term','Grinds'

